pCO2 product synopsis 2023
…
(exp(0.0423*0.204)-1)*404

[1] 3.501282

pco2_product_annual_regression_ensemble %>%
  filter(biome == "Global") %>% 
  select(year, name, resid) %>% 
  pivot_wider(values_from = resid) %>% 
  arrange(desc(temperature))

# A tibble: 34 × 11
    year     fgco2 fgco2_int    sfco2 atm_fco2  dfco2    kw_sol temperature
   <dbl>     <dbl>     <dbl>    <dbl>    <dbl>  <dbl>     <dbl>       <dbl>
 1  2023  0.0498     0.153    0.247     -0.840  1.10  -0.00115       0.206 
 2  1998 -0.0285    -0.0880  -0.552      0.207 -0.761  0.00128       0.171 
 3  2016 -0.0574    -0.178   -0.334      0.440 -0.774 -0.000291      0.147 
 4  2015 -0.0562    -0.175   -1.96      -0.588 -1.37  -0.000444      0.131 
 5  2019 -0.0203    -0.0626  -0.00908    0.166 -0.171 -0.000673      0.113 
 6  1997 -0.0145    -0.0452  -1.40      -0.899 -0.500  0.000220      0.105 
 7  1990  0.000629   0.00251  0.542      0.894 -0.344 -0.000137      0.0915
 8  2003  0.00655    0.0203   0.235      0.400 -0.168  0.000153      0.0812
 9  2020  0.0142     0.0444   0.454      0.159  0.300 -0.000173      0.0733
10  2005  0.0142     0.0435   0.506      0.381  0.122  0.000224      0.0465
# ℹ 24 more rows
# ℹ 3 more variables: salinity <dbl>, mld <dbl>, chl <dbl>
…
