pCO2 product synopsis 2023 GCB
…
Seasonal anomalies

Annual mean trends

pco2_product_biome_monthly_detrended %>%
  filter(biome %in% "NA-STPS",
         name %in% c("temperature"),
         product %in% pco2_product_list) %>%
  select(-c(time, product)) %>% 
  group_by(year, month, biome, name) %>% 
  summarise(across(where(is.numeric), mean)) %>% 
  ungroup()

# A tibble: 408 × 7
    year month biome   name        value   fit   resid
   <dbl> <dbl> <chr>   <fct>       <dbl> <dbl>   <dbl>
 1  1990     1 NA-STPS temperature  23.4  23.4 -0.0569
 2  1990     2 NA-STPS temperature  22.9  22.9  0.0174
 3  1990     3 NA-STPS temperature  22.8  22.9 -0.0959
 4  1990     4 NA-STPS temperature  23.2  23.3 -0.0743
 5  1990     5 NA-STPS temperature  24.3  24.2  0.0880
 6  1990     6 NA-STPS temperature  25.3  25.4 -0.0876
 7  1990     7 NA-STPS temperature  26.3  26.3 -0.0783
 8  1990     8 NA-STPS temperature  27.1  27.0  0.0741
 9  1990     9 NA-STPS temperature  27.4  27.2  0.155 
10  1990    10 NA-STPS temperature  26.9  26.7  0.184 
# ℹ 398 more rows
…
